%YAML 1.1
%TAG !u! tag:unity3d.com,2011:
--- !u!114 &11400000
MonoBehaviour:
  m_ObjectHideFlags: 0
  m_CorrespondingSourceObject: {fileID: 0}
  m_PrefabInstance: {fileID: 0}
  m_PrefabAsset: {fileID: 0}
  m_GameObject: {fileID: 0}
  m_Enabled: 1
  m_EditorHideFlags: 0
  m_Script: {fileID: 11500000, guid: 77492edf647e96c49979c5cff124c0ce, type: 3}
  m_Name: Belgium
  m_EditorClassIdentifier: 
  group: {fileID: 11400000, guid: abf5d4c15cabaa64ba19610a485375cb, type: 2}
  name: Belgium
  flag: {fileID: 21300000, guid: 598026575c7f2f148a558e55b8db0f4f, type: 3}
  points: 0
  goalsPro: 0
  goalsAgainst: 0
  victories: 0
  draws: 0
  losses: 0
