%YAML 1.1
%TAG !u! tag:unity3d.com,2011:
--- !u!114 &11400000
MonoBehaviour:
  m_ObjectHideFlags: 0
  m_CorrespondingSourceObject: {fileID: 0}
  m_PrefabInstance: {fileID: 0}
  m_PrefabAsset: {fileID: 0}
  m_GameObject: {fileID: 0}
  m_Enabled: 1
  m_EditorHideFlags: 0
  m_Script: {fileID: 11500000, guid: 77492edf647e96c49979c5cff124c0ce, type: 3}
  m_Name: United States
  m_EditorClassIdentifier: 
  group: {fileID: 11400000, guid: 161debff25988c546b559160d83eb03c, type: 2}
  name: United States
  flag: {fileID: 21300000, guid: 0b2e5784cb04f884eb0c6f8b0ca6f3f9, type: 3}
  points: 0
  goalsPro: 0
  goalsAgainst: 0
  victories: 0
  draws: 0
  losses: 0
