%YAML 1.1
%TAG !u! tag:unity3d.com,2011:
--- !u!114 &11400000
MonoBehaviour:
  m_ObjectHideFlags: 0
  m_CorrespondingSourceObject: {fileID: 0}
  m_PrefabInstance: {fileID: 0}
  m_PrefabAsset: {fileID: 0}
  m_GameObject: {fileID: 0}
  m_Enabled: 1
  m_EditorHideFlags: 0
  m_Script: {fileID: 11500000, guid: 74bb9b4f8e5c128478ecae7772660394, type: 3}
  m_Name: GameScenePositions
  m_EditorClassIdentifier: 
  forestPlayersPos:
  - {x: -54, y: 8.8, z: -65}
  - {x: 61, y: 8.8, z: 58}
  - {x: 61, y: 8.8, z: -65}
  - {x: -54, y: 8.8, z: 58}
  icePlayersPos:
  - {x: 1949, y: 8.8, z: -65}
  - {x: 2064, y: 8.8, z: 58}
  - {x: 2064, y: 8.8, z: -65}
  - {x: 1949, y: 8.8, z: 58}
  firePlayersPos:
  - {x: 3949, y: 8.8, z: -65}
  - {x: 4064, y: 8.8, z: 58}
  - {x: 4064, y: 8.8, z: -65}
  - {x: 3949, y: 8.8, z: 58}
  forestMapTips:
  - {x: -64, y: 68}
  - {x: 64, y: -68}
  iceMapTips:
  - {x: 1930, y: 74}
  - {x: 2074, y: -74}
  fireMapTips:
  - {x: 3932, y: 68}
  - {x: 4070, y: -69}
  forestCamPos: {x: 2, y: 176, z: -114}
  iceCamPos: {x: 2004, y: 171, z: -126}
  fireCamPos: {x: 3998, y: 158.5, z: -133}
  arenasTracks:
  - {fileID: 8300000, guid: 568bb2b0fca82a24d99aa05f40b14633, type: 3}
  - {fileID: 8300000, guid: 53936c7ea313e924a9f53da742023ba5, type: 3}
  - {fileID: 8300000, guid: c07d89504e6e5be459680f758e147e6a, type: 3}
  mapsNames:
  - forest
  - fire
  - ice
