%YAML 1.1
%TAG !u! tag:unity3d.com,2011:
--- !u!114 &11400000
MonoBehaviour:
  m_ObjectHideFlags: 0
  m_CorrespondingSourceObject: {fileID: 0}
  m_PrefabInstance: {fileID: 0}
  m_PrefabAsset: {fileID: 0}
  m_GameObject: {fileID: 0}
  m_Enabled: 1
  m_EditorHideFlags: 0
  m_Script: {fileID: 11500000, guid: 77492edf647e96c49979c5cff124c0ce, type: 3}
  m_Name: Senegal
  m_EditorClassIdentifier: 
  group: {fileID: 11400000, guid: 8f6d7f9240fb56a4b99452e36625a6a4, type: 2}
  name: Senegal
  flag: {fileID: 21300000, guid: c01e667c2eb5f28419efb0d753201c0f, type: 3}
  points: 0
  goalsPro: 0
  goalsAgainst: 0
  wins: 0
  draws: 0
  losses: 0
