%YAML 1.1
%TAG !u! tag:unity3d.com,2011:
--- !u!114 &11400000
MonoBehaviour:
  m_ObjectHideFlags: 0
  m_CorrespondingSourceObject: {fileID: 0}
  m_PrefabInstance: {fileID: 0}
  m_PrefabAsset: {fileID: 0}
  m_GameObject: {fileID: 0}
  m_Enabled: 1
  m_EditorHideFlags: 0
  m_Script: {fileID: 11500000, guid: 60464198a0fc0524dbd0f6f56f448aba, type: 3}
  m_Name: Racer 4
  m_EditorClassIdentifier: 
  racerName: Bowser (?)
  racerCharacter: Bowser
  racerCharacterPhoto: {fileID: 21300000, guid: 4cc1a0baf83721b41844f681b0e117eb, type: 3}
  racerPoints: 0
  racerHistoryPositions: 000000000000000000000000000000000000000000000000000000000000000000000000000000000000000000000000000000000000000000000000000000000000000000000000
  racerBestLapPoints: 0
  untieWeight: 0
