%YAML 1.1
%TAG !u! tag:unity3d.com,2011:
--- !u!114 &11400000
MonoBehaviour:
  m_ObjectHideFlags: 0
  m_CorrespondingSourceObject: {fileID: 0}
  m_PrefabInstance: {fileID: 0}
  m_PrefabAsset: {fileID: 0}
  m_GameObject: {fileID: 0}
  m_Enabled: 1
  m_EditorHideFlags: 0
  m_Script: {fileID: 11500000, guid: 60464198a0fc0524dbd0f6f56f448aba, type: 3}
  m_Name: Racer 5
  m_EditorClassIdentifier: 
  racerName: Bruno
  racerCharacter: Waluigi
  racerCharacterPhoto: {fileID: 21300000, guid: 5c9274edc31982f4e8e898e7b4b3dc7d, type: 3}
  racerPoints: 0
  racerHistoryPositions: 000000000000000000000000000000000000000000000000000000000000000000000000000000000000000000000000000000000000000000000000000000000000000000000000
  racerBestLapPoints: 0
  untieWeight: 0
